{
  "title": "go/apigee-demos",
  "description": "All internal apigee demos are collected here.",
  "tags": [],
  "categories": ["Internal", "External"],
  "exclude": [
    "^lang-.*"
  ],
  "logoUrl": "/images/icons/rocket.svg",
  "toolbarBgColor": "#37474F",
  "sort": "mainCategory",
  "pins": [],
  "hidden": true
}
